{
  "urn" : "local:miroslav.honzak:ci.seea.africa:y2014.tif",
  "version" : "0.0.1",
  "adapterType" : "raster",
  "localPath" : "ci.seea.africa/resources/y2014",
  "geometry" : "τ1{tend=1420070400000,tstart=1388534400000,ttype=logical}S2(15957,15979){bbox=[-11.600124926892205 -7.299799830283643 4.29978610743809 8.60604008492184],proj=EPSG:4326}",
  "projectName" : "ci.seea.africa",
  "localName" : "y2014",
  "type" : "NUMBER",
  "resourceTimestamp" : 1648583536655,
  "metadata" : {
    "im:keywords" : "",
    "dc:comment" : "",
    "im:notes" : "",
    "dc:title" : "Land Cover Map of Liberia (2014)",
    "dc:url" : "",
    "dc:creator" : "",
    "im:thematic-area" : "",
    "dc:originator" : "",
    "im:geographic-area" : "",
    "dc:source" : ""
  },
  "parameters" : {
    "transform" : "",
    "band" : "1",
    "nodata" : "0"
  },
  "localPaths" : [ "ci.seea.africa/resources/y2014/y2014.tif", "ci.seea.africa/resources/y2014/y2014.tif.aux.xml" ],
  "history" : [ ],
  "notifications" : [ ],
  "attributes" : [ ],
  "spatialExtent" : {
    "east" : -7.299799830283643,
    "west" : -11.600124926892205,
    "north" : 8.60604008492184,
    "south" : 4.29978610743809,
    "gridResolution" : null,
    "gridUnit" : null
  },
  "dependencies" : null,
  "outputs" : null,
  "categorizables" : [ ],
  "codelists" : [ ],
  "availability" : null,
  "exportFormats" : {
    "zip" : "GeoTiff"
  }
}